<?xml version="1.0" encoding="UTF-8" standalone="no"?>
<!-- Created with Inkscape (http://www.inkscape.org/) -->

<svg
   width="100"
   height="100"
   viewBox="0 0 105.5865 96.051155"
   version="1.1"
   id="svg5"
   inkscape:version="1.1.1 (3bf5ae0d25, 2021-09-20, custom)"
   sodipodi:docname="logo.svg"
   xmlns:inkscape="http://www.inkscape.org/namespaces/inkscape"
   xmlns:sodipodi="http://sodipodi.sourceforge.net/DTD/sodipodi-0.dtd"
   xmlns="http://www.w3.org/2000/svg"
   xmlns:svg="http://www.w3.org/2000/svg">
  <sodipodi:namedview
     id="namedview7"
     pagecolor="#ffffff"
     bordercolor="#666666"
     borderopacity="1.0"
     inkscape:pageshadow="2"
     inkscape:pageopacity="0.0"
     inkscape:pagecheckerboard="0"
     inkscape:document-units="mm"
     showgrid="false"
     inkscape:zoom="4.1071317"
     inkscape:cx="42.608811"
     inkscape:cy="78.400213"
     inkscape:window-width="1920"
     inkscape:window-height="1001"
     inkscape:window-x="0"
     inkscape:window-y="0"
     inkscape:window-maximized="1"
     inkscape:current-layer="layer1" />
  <defs
     id="defs2" />
  <g
     inkscape:label="Layer 1"
     inkscape:groupmode="layer"
     id="layer1"
     transform="translate(-76.671764,-32.292781)">
    <path
       style="fill:#dcdcdc;fill-opacity:1;stroke:#000000;stroke-width:0.140452px;stroke-linecap:butt;stroke-linejoin:miter;stroke-opacity:1"
       d="m 84.979725,87.135395 5.078005,-1.015601 7.447749,0.77379 v 8.173163 l 0.282816,0.07582 2.135273,2.874307 -4.062404,6.045236 v 4.15912 l 5.513276,9.47893 -2.756642,2.99844 -2.708271,0.67708 -4.594386,-8.70516 -3.191889,6.48049 -3.482063,0.7738 -1.692668,-3.09517 3.433695,-8.46332 v -2.22465 l -4.35257,-7.786271 1.547578,-3.433696 h 1.499229 z"
       id="path1050" />
    <path
       style="fill:#e6e6e6;fill-opacity:1;stroke:#000000;stroke-width:0.210677px;stroke-linecap:butt;stroke-linejoin:miter;stroke-opacity:1"
       d="m 96.381623,71.067859 7.616987,-1.523402 11.17161,1.160686 v 12.259754 l 0.42424,0.113678 3.2029,4.311445 -6.0936,9.067869 v 6.238671 l 8.2699,14.21842 -4.13495,4.49767 -4.0624,1.01559 -6.89157,-13.05771 -4.78783,9.72073 -5.223103,1.1607 -2.539001,-4.64276 5.150544,-12.69501 v -3.336964 l -6.528861,-11.679407 2.321373,-5.150547 h 2.248834 z"
       id="path3622" />
    <path
       style="fill:#f0f0f0;fill-opacity:1;stroke:#000000;stroke-width:0.263347px;stroke-linecap:butt;stroke-linejoin:miter;stroke-opacity:1"
       d="m 113.84545,59.116924 9.52123,-1.904252 13.96452,1.450857 v 15.324693 l 0.5303,0.142097 4.00362,5.389305 -7.617,11.334837 v 7.798357 l 10.33738,17.773012 -5.16869,5.62208 -5.078,1.26951 -8.61446,-16.32215 -5.9848,12.15092 -6.52887,1.45087 -3.17375,-5.80344 6.43817,-15.868768 v -4.171209 l -8.16107,-14.599269 2.90172,-6.438185 h 2.81104 z"
       id="path1302" />
    <path
       style="fill:#ffffff;fill-opacity:1;stroke:#000000;stroke-width:0.3429px;stroke-linecap:butt;stroke-linejoin:miter;stroke-opacity:1"
       d="m 136.74107,39.748053 12.39747,-2.479496 18.18296,1.88914 v 19.954026 l 0.69048,0.185018 5.21309,7.017326 -9.91797,14.758893 v 10.154122 l 13.4601,23.141948 -6.73007,7.32041 -6.61197,1.653 -11.21677,-21.2528 -7.79269,15.82153 -8.50112,1.88914 -4.13249,-7.55655 8.38305,-20.662467 v -5.431271 l -10.6264,-19.009461 3.77827,-8.38305 h 3.6602 z"
       id="path869" />
  </g>
</svg>
