<?xml version="1.0" encoding="UTF-8" standalone="no"?>
<!-- Created with Inkscape (http://www.inkscape.org/) -->

<svg
   width="100"
   height="100"
   viewBox="0 0 105.5865 96.051155"
   version="1.1"
   id="svg5"
   inkscape:version="1.2.2 (b0a8486541, 2022-12-01)"
   sodipodi:docname="logo_mod_discord.svg"
   inkscape:export-filename="logo_mod_discord.png"
   inkscape:export-xdpi="96"
   inkscape:export-ydpi="96"
   xmlns:inkscape="http://www.inkscape.org/namespaces/inkscape"
   xmlns:sodipodi="http://sodipodi.sourceforge.net/DTD/sodipodi-0.dtd"
   xmlns="http://www.w3.org/2000/svg"
   xmlns:svg="http://www.w3.org/2000/svg">
  <sodipodi:namedview
     id="namedview7"
     pagecolor="#ffffff"
     bordercolor="#666666"
     borderopacity="1.0"
     inkscape:pageshadow="2"
     inkscape:pageopacity="0.0"
     inkscape:pagecheckerboard="0"
     inkscape:document-units="mm"
     showgrid="false"
     inkscape:zoom="5.8083614"
     inkscape:cx="22.984107"
     inkscape:cy="44.246558"
     inkscape:window-width="1920"
     inkscape:window-height="1001"
     inkscape:window-x="0"
     inkscape:window-y="0"
     inkscape:window-maximized="1"
     inkscape:current-layer="layer1"
     inkscape:showpageshadow="2"
     inkscape:deskcolor="#d1d1d1" />
  <defs
     id="defs2" />
  <g
     inkscape:label="Layer 1"
     inkscape:groupmode="layer"
     id="layer1"
     transform="translate(-76.671764,-32.292781)">
    <path
       style="fill:#008200;fill-opacity:1;stroke:#000000;stroke-width:0.112362px;stroke-linecap:butt;stroke-linejoin:miter;stroke-opacity:1"
       d="m 93.876782,85.771988 4.062404,-0.812481 5.958204,0.619032 v 6.538531 l 0.22625,0.06066 1.70822,2.299445 -3.24993,4.836189 v 3.327296 l 4.41062,7.58314 -2.20531,2.39875 -2.16662,0.54167 -3.675505,-6.96413 -2.553511,5.18439 -2.785651,0.61904 -1.354134,-2.47614 2.746956,-6.77065 v -1.77972 l -3.482056,-6.229015 1.238062,-2.746956 h 1.199383 z"
       id="path1050" />
    <path
       style="fill:#00aa00;fill-opacity:1;stroke:#000000;stroke-width:0.168542px;stroke-linecap:butt;stroke-linejoin:miter;stroke-opacity:1"
       d="m 102.9983,72.917959 6.09359,-1.218721 8.93729,0.928549 v 9.807803 l 0.33939,0.09094 2.56232,3.449156 -4.87488,7.254295 v 4.990937 l 6.61592,11.374742 -3.30796,3.59813 -3.24992,0.81247 -5.51326,-10.44616 -3.83026,7.77658 -4.17848,0.92856 -2.0312,-3.71421 4.12043,-10.156008 v -2.669571 l -5.223087,-9.343526 1.857097,-4.120437 h 1.79907 z"
       id="path3622" />
    <path
       style="fill:#00c800;fill-opacity:1;stroke:#000000;stroke-width:0.210678px;stroke-linecap:butt;stroke-linejoin:miter;stroke-opacity:1"
       d="m 116.96936,63.357211 7.61699,-1.523401 11.17161,1.160685 V 75.25425 l 0.42424,0.113677 3.2029,4.311444 -6.0936,9.06787 v 6.238686 l 8.2699,14.218413 -4.13495,4.49766 -4.0624,1.01561 -6.89157,-13.05772 -4.78784,9.72073 -5.22309,1.1607 -2.539,-4.64275 5.15053,-12.695016 v -3.336967 l -6.52885,-11.679416 2.32137,-5.150548 h 2.24883 z"
       id="path1302" />
    <path
       style="fill:#00e600;fill-opacity:1;stroke:#000000;stroke-width:0.27432px;stroke-linecap:butt;stroke-linejoin:miter;stroke-opacity:1"
       d="m 135.28586,47.862115 9.91797,-1.983597 14.54637,1.511312 v 15.963221 l 0.55239,0.148014 4.17047,5.613861 -7.93438,11.807114 v 8.123298 l 10.76808,18.513562 -5.38405,5.85632 -5.28958,1.3224 -8.97342,-17.002236 -6.23415,12.657226 -6.80089,1.51131 -3.306,-6.04524 6.70644,-16.529973 V 84.98369 l -8.50112,-15.207569 3.02262,-6.70644 h 2.92816 z"
       id="path869" />
  </g>
</svg>
